        <?php query_posts(array('post_type' => 'blog' , 'meta_key' => 'destaque' , 'meta_value' => 'sim')); ?>
        <?php if( have_posts() ) : while( have_posts() ) : the_post(); ?>
        <a href="<?php echo get_permalink(); ?>"><div class="titulo"><?php echo get_the_title(); ?></div></a>
        <?php endwhile; endif; ?>
        <?php wp_reset_query(); ?>