Data do envio: 07 / Apr / 2021 - 08:53 
IP: 186.244.51.14 

Nome: Ismael Oliveira Silva
E-mail: ismaelosilva2016@gmail.com
Telefone: 98987581121
Mensagem: Estamos fazendo um teste de funcionalidade.

Sds,
